%YAML 1.1
%TAG !u! tag:unity3d.com,2011:
--- !u!1045 &1
EditorBuildSettings:
  m_ObjectHideFlags: 0
  serializedVersion: 2
  m_Scenes: []
  m_configObjects:
    UnityEditor.XR.ARCore.ARCoreSettings: {fileID: 11400000, guid: 811549fbbe4671848977f6dcee79c2c1, type: 2}
    com.unity.xr.management.loader_settings: {fileID: 11400000, guid: 36036a9dcea8a9a43bfbdb1a498ef55a, type: 2}
